…
Example 2:

``` r
#Finding the average life expectancy by country in the gapminder dataset
answer2.0 <-group_mean(gapminder, country, lifeExp)
print(answer2.0)
```

    ## # A tibble: 142 × 2
    ##    country      mean
    ##    <fct>       <dbl>
    ##  1 Afghanistan  37.5
    ##  2 Albania      68.4
    ##  3 Algeria      59.0
    ##  4 Angola       37.9
    ##  5 Argentina    69.1
    ##  6 Australia    74.7
    ##  7 Austria      73.1
    ##  8 Bahrain      65.6
    ##  9 Bangladesh   49.8
    ## 10 Belgium      73.6
    ## # ℹ 132 more rows
…
